^C:\USERS\NSAMPAOL\DOCUMENTS\VISUAL STUDIO 2013\PROJECTS\LAB12\LAB12\LAB12\CUBE.CPP|C:\USERS\NSAMPAOL\DOCUMENTS\VISUAL STUDIO 2013\PROJECTS\LAB12\LAB12\LAB12\LOADSHADERS.CPP|C:\USERS\NSAMPAOL\DOCUMENTS\VISUAL STUDIO 2013\PROJECTS\LAB12\LAB12\LAB12\MAIN.CPP|C:\USERS\NSAMPAOL\DOCUMENTS\VISUAL STUDIO 2013\PROJECTS\LAB12\LAB12\LAB12\MULTITEXMODEL.CPP|C:\USERS\NSAMPAOL\DOCUMENTS\VISUAL STUDIO 2013\PROJECTS\LAB12\LAB12\LAB12\POINTSPRITE.CPP|C:\USERS\NSAMPAOL\DOCUMENTS\VISUAL STUDIO 2013\PROJECTS\LAB12\LAB12\LAB12\QUAD.CPP|C:\USERS\NSAMPAOL\DOCUMENTS\VISUAL STUDIO 2013\PROJECTS\LAB12\LAB12\LAB12\RECTANGLE.CPP|C:\USERS\NSAMPAOL\DOCUMENTS\VISUAL STUDIO 2013\PROJECTS\LAB12\LAB12\LAB12\TEXMODEL.CPP|C:\USERS\NSAMPAOL\DOCUMENTS\VISUAL STUDIO 2013\PROJECTS\LAB12\LAB12\LAB12\TEXTURE.CPP|C:\USERS\NSAMPAOL\DOCUMENTS\VISUAL STUDIO 2013\PROJECTS\LAB12\LAB12\LAB12\TRANSPARENTTEXMODEL.CPP|C:\USERS\NSAMPAOL\DOCUMENTS\VISUAL STUDIO 2013\PROJECTS\LAB12\LAB12\LAB12\VIEWCONTROLLER.CPP|C:\USERS\NSAMPAOL\DOCUMENTS\VISUAL STUDIO 2013\PROJECTS\LAB12\LAB12\LAB12\WORLDMODEL.CPP
C:\USERS\NSAMPAOL\DOCUMENTS\VISUAL STUDIO 2013\PROJECTS\LAB12\LAB12\LAB12\DEBUG\VC120.PDB
C:\USERS\NSAMPAOL\DOCUMENTS\VISUAL STUDIO 2013\PROJECTS\LAB12\LAB12\LAB12\DEBUG\VC120.IDB
C:\USERS\NSAMPAOL\DOCUMENTS\VISUAL STUDIO 2013\PROJECTS\LAB12\LAB12\LAB12\DEBUG\TEXTURE.OBJ
^C:\USERS\NSAMPAOL\DOCUMENTS\VISUAL STUDIO 2013\PROJECTS\LAB12\LAB12\LAB12\CUBE.CPP
C:\USERS\NSAMPAOL\DOCUMENTS\VISUAL STUDIO 2013\PROJECTS\LAB12\LAB12\LAB12\DEBUG\VC120.PDB
C:\USERS\NSAMPAOL\DOCUMENTS\VISUAL STUDIO 2013\PROJECTS\LAB12\LAB12\LAB12\DEBUG\VC120.IDB
C:\USERS\NSAMPAOL\DOCUMENTS\VISUAL STUDIO 2013\PROJECTS\LAB12\LAB12\LAB12\DEBUG\CUBE.OBJ
^C:\USERS\NSAMPAOL\DOCUMENTS\VISUAL STUDIO 2013\PROJECTS\LAB12\LAB12\LAB12\LOADSHADERS.CPP
C:\USERS\NSAMPAOL\DOCUMENTS\VISUAL STUDIO 2013\PROJECTS\LAB12\LAB12\LAB12\DEBUG\VC120.PDB
^C:\USERS\NSAMPAOL\DOCUMENTS\VISUAL STUDIO 2013\PROJECTS\LAB12\LAB12\LAB12\MAIN.CPP
C:\USERS\NSAMPAOL\DOCUMENTS\VISUAL STUDIO 2013\PROJECTS\LAB12\LAB12\LAB12\DEBUG\VC120.PDB
^C:\USERS\NSAMPAOL\DOCUMENTS\VISUAL STUDIO 2013\PROJECTS\LAB12\LAB12\LAB12\MULTITEXMODEL.CPP
C:\USERS\NSAMPAOL\DOCUMENTS\VISUAL STUDIO 2013\PROJECTS\LAB12\LAB12\LAB12\DEBUG\VC120.PDB
^C:\USERS\NSAMPAOL\DOCUMENTS\VISUAL STUDIO 2013\PROJECTS\LAB12\LAB12\LAB12\POINTSPRITE.CPP
C:\USERS\NSAMPAOL\DOCUMENTS\VISUAL STUDIO 2013\PROJECTS\LAB12\LAB12\LAB12\DEBUG\VC120.PDB
^C:\USERS\NSAMPAOL\DOCUMENTS\VISUAL STUDIO 2013\PROJECTS\LAB12\LAB12\LAB12\QUAD.CPP
C:\USERS\NSAMPAOL\DOCUMENTS\VISUAL STUDIO 2013\PROJECTS\LAB12\LAB12\LAB12\DEBUG\VC120.PDB
^C:\USERS\NSAMPAOL\DOCUMENTS\VISUAL STUDIO 2013\PROJECTS\LAB12\LAB12\LAB12\RECTANGLE.CPP
C:\USERS\NSAMPAOL\DOCUMENTS\VISUAL STUDIO 2013\PROJECTS\LAB12\LAB12\LAB12\DEBUG\VC120.PDB
^C:\USERS\NSAMPAOL\DOCUMENTS\VISUAL STUDIO 2013\PROJECTS\LAB12\LAB12\LAB12\TEXMODEL.CPP
C:\USERS\NSAMPAOL\DOCUMENTS\VISUAL STUDIO 2013\PROJECTS\LAB12\LAB12\LAB12\DEBUG\VC120.PDB
C:\USERS\NSAMPAOL\DOCUMENTS\VISUAL STUDIO 2013\PROJECTS\LAB12\LAB12\LAB12\DEBUG\VC120.IDB
C:\USERS\NSAMPAOL\DOCUMENTS\VISUAL STUDIO 2013\PROJECTS\LAB12\LAB12\LAB12\DEBUG\TEXMODEL.OBJ
^C:\USERS\NSAMPAOL\DOCUMENTS\VISUAL STUDIO 2013\PROJECTS\LAB12\LAB12\LAB12\TEXTURE.CPP
C:\USERS\NSAMPAOL\DOCUMENTS\VISUAL STUDIO 2013\PROJECTS\LAB12\LAB12\LAB12\DEBUG\VC120.PDB
^C:\USERS\NSAMPAOL\DOCUMENTS\VISUAL STUDIO 2013\PROJECTS\LAB12\LAB12\LAB12\TRANSPARENTTEXMODEL.CPP
C:\USERS\NSAMPAOL\DOCUMENTS\VISUAL STUDIO 2013\PROJECTS\LAB12\LAB12\LAB12\DEBUG\VC120.PDB
^C:\USERS\NSAMPAOL\DOCUMENTS\VISUAL STUDIO 2013\PROJECTS\LAB12\LAB12\LAB12\VIEWCONTROLLER.CPP
C:\USERS\NSAMPAOL\DOCUMENTS\VISUAL STUDIO 2013\PROJECTS\LAB12\LAB12\LAB12\DEBUG\VC120.PDB
C:\USERS\NSAMPAOL\DOCUMENTS\VISUAL STUDIO 2013\PROJECTS\LAB12\LAB12\LAB12\DEBUG\VC120.IDB
C:\USERS\NSAMPAOL\DOCUMENTS\VISUAL STUDIO 2013\PROJECTS\LAB12\LAB12\LAB12\DEBUG\VIEWCONTROLLER.OBJ
^C:\USERS\NSAMPAOL\DOCUMENTS\VISUAL STUDIO 2013\PROJECTS\LAB12\LAB12\LAB12\WORLDMODEL.CPP
C:\USERS\NSAMPAOL\DOCUMENTS\VISUAL STUDIO 2013\PROJECTS\LAB12\LAB12\LAB12\DEBUG\VC120.PDB
C:\USERS\NSAMPAOL\DOCUMENTS\VISUAL STUDIO 2013\PROJECTS\LAB12\LAB12\LAB12\DEBUG\VC120.IDB
C:\USERS\NSAMPAOL\DOCUMENTS\VISUAL STUDIO 2013\PROJECTS\LAB12\LAB12\LAB12\DEBUG\WORLDMODEL.OBJ
^C:\USERS\NSAMPAOL\DOCUMENTS\VISUAL STUDIO 2013\PROJECTS\LAB12\LAB12\LAB12\CUBE.CPP|C:\USERS\NSAMPAOL\DOCUMENTS\VISUAL STUDIO 2013\PROJECTS\LAB12\LAB12\LAB12\LOADSHADERS.CPP|C:\USERS\NSAMPAOL\DOCUMENTS\VISUAL STUDIO 2013\PROJECTS\LAB12\LAB12\LAB12\MAIN.CPP|C:\USERS\NSAMPAOL\DOCUMENTS\VISUAL STUDIO 2013\PROJECTS\LAB12\LAB12\LAB12\MULTITEXMODEL.CPP|C:\USERS\NSAMPAOL\DOCUMENTS\VISUAL STUDIO 2013\PROJECTS\LAB12\LAB12\LAB12\POINTSPRITE.CPP|C:\USERS\NSAMPAOL\DOCUMENTS\VISUAL STUDIO 2013\PROJECTS\LAB12\LAB12\LAB12\QUAD.CPP|C:\USERS\NSAMPAOL\DOCUMENTS\VISUAL STUDIO 2013\PROJECTS\LAB12\LAB12\LAB12\RECTANGLE.CPP|C:\USERS\NSAMPAOL\DOCUMENTS\VISUAL STUDIO 2013\PROJECTS\LAB12\LAB12\LAB12\TEXMODEL.CPP|C:\USERS\NSAMPAOL\DOCUMENTS\VISUAL STUDIO 2013\PROJECTS\LAB12\LAB12\LAB12\TRANSPARENTTEXMODEL.CPP|C:\USERS\NSAMPAOL\DOCUMENTS\VISUAL STUDIO 2013\PROJECTS\LAB12\LAB12\LAB12\VIEWCONTROLLER.CPP|C:\USERS\NSAMPAOL\DOCUMENTS\VISUAL STUDIO 2013\PROJECTS\LAB12\LAB12\LAB12\WORLDMODEL.CPP
C:\USERS\NSAMPAOL\DOCUMENTS\VISUAL STUDIO 2013\PROJECTS\LAB12\LAB12\LAB12\DEBUG\VC120.PDB
C:\USERS\NSAMPAOL\DOCUMENTS\VISUAL STUDIO 2013\PROJECTS\LAB12\LAB12\LAB12\DEBUG\VC120.IDB
C:\USERS\NSAMPAOL\DOCUMENTS\VISUAL STUDIO 2013\PROJECTS\LAB12\LAB12\LAB12\DEBUG\LOADSHADERS.OBJ
C:\USERS\NSAMPAOL\DOCUMENTS\VISUAL STUDIO 2013\PROJECTS\LAB12\LAB12\LAB12\DEBUG\CUBE.OBJ
C:\USERS\NSAMPAOL\DOCUMENTS\VISUAL STUDIO 2013\PROJECTS\LAB12\LAB12\LAB12\DEBUG\MAIN.OBJ
C:\USERS\NSAMPAOL\DOCUMENTS\VISUAL STUDIO 2013\PROJECTS\LAB12\LAB12\LAB12\DEBUG\MULTITEXMODEL.OBJ
C:\USERS\NSAMPAOL\DOCUMENTS\VISUAL STUDIO 2013\PROJECTS\LAB12\LAB12\LAB12\DEBUG\POINTSPRITE.OBJ
C:\USERS\NSAMPAOL\DOCUMENTS\VISUAL STUDIO 2013\PROJECTS\LAB12\LAB12\LAB12\DEBUG\QUAD.OBJ
C:\USERS\NSAMPAOL\DOCUMENTS\VISUAL STUDIO 2013\PROJECTS\LAB12\LAB12\LAB12\DEBUG\RECTANGLE.OBJ
C:\USERS\NSAMPAOL\DOCUMENTS\VISUAL STUDIO 2013\PROJECTS\LAB12\LAB12\LAB12\DEBUG\TEXMODEL.OBJ
C:\USERS\NSAMPAOL\DOCUMENTS\VISUAL STUDIO 2013\PROJECTS\LAB12\LAB12\LAB12\DEBUG\TRANSPARENTTEXMODEL.OBJ
C:\USERS\NSAMPAOL\DOCUMENTS\VISUAL STUDIO 2013\PROJECTS\LAB12\LAB12\LAB12\DEBUG\VIEWCONTROLLER.OBJ
C:\USERS\NSAMPAOL\DOCUMENTS\VISUAL STUDIO 2013\PROJECTS\LAB12\LAB12\LAB12\DEBUG\WORLDMODEL.OBJ
^C:\USERS\NSAMPAOL\DOCUMENTS\VISUAL STUDIO 2013\PROJECTS\LAB12\LAB12\LAB12\VIEWCONTROLLER.CPP|C:\USERS\NSAMPAOL\DOCUMENTS\VISUAL STUDIO 2013\PROJECTS\LAB12\LAB12\LAB12\WORLDMODEL.CPP
C:\USERS\NSAMPAOL\DOCUMENTS\VISUAL STUDIO 2013\PROJECTS\LAB12\LAB12\LAB12\DEBUG\VC120.PDB
C:\USERS\NSAMPAOL\DOCUMENTS\VISUAL STUDIO 2013\PROJECTS\LAB12\LAB12\LAB12\DEBUG\VC120.IDB
C:\USERS\NSAMPAOL\DOCUMENTS\VISUAL STUDIO 2013\PROJECTS\LAB12\LAB12\LAB12\DEBUG\WORLDMODEL.OBJ
^C:\USERS\NSAMPAOL\DOCUMENTS\VISUAL STUDIO 2013\PROJECTS\LAB12\LAB12\LAB12\MAIN.CPP|C:\USERS\NSAMPAOL\DOCUMENTS\VISUAL STUDIO 2013\PROJECTS\LAB12\LAB12\LAB12\VIEWCONTROLLER.CPP|C:\USERS\NSAMPAOL\DOCUMENTS\VISUAL STUDIO 2013\PROJECTS\LAB12\LAB12\LAB12\WORLDMODEL.CPP
C:\USERS\NSAMPAOL\DOCUMENTS\VISUAL STUDIO 2013\PROJECTS\LAB12\LAB12\LAB12\DEBUG\VC120.PDB
C:\USERS\NSAMPAOL\DOCUMENTS\VISUAL STUDIO 2013\PROJECTS\LAB12\LAB12\LAB12\DEBUG\VC120.IDB
C:\USERS\NSAMPAOL\DOCUMENTS\VISUAL STUDIO 2013\PROJECTS\LAB12\LAB12\LAB12\DEBUG\MAIN.OBJ
C:\USERS\NSAMPAOL\DOCUMENTS\VISUAL STUDIO 2013\PROJECTS\LAB12\LAB12\LAB12\DEBUG\VIEWCONTROLLER.OBJ
^C:\USERS\NSAMPAOL\DOCUMENTS\VISUAL STUDIO 2013\PROJECTS\LAB12\LAB12\LAB12\MAIN.CPP|C:\USERS\NSAMPAOL\DOCUMENTS\VISUAL STUDIO 2013\PROJECTS\LAB12\LAB12\LAB12\VIEWCONTROLLER.CPP
C:\USERS\NSAMPAOL\DOCUMENTS\VISUAL STUDIO 2013\PROJECTS\LAB12\LAB12\LAB12\DEBUG\VC120.PDB
C:\USERS\NSAMPAOL\DOCUMENTS\VISUAL STUDIO 2013\PROJECTS\LAB12\LAB12\LAB12\DEBUG\VC120.IDB
C:\USERS\NSAMPAOL\DOCUMENTS\VISUAL STUDIO 2013\PROJECTS\LAB12\LAB12\LAB12\DEBUG\MAIN.OBJ
^C:\USERS\NSAMPAOL\DOCUMENTS\VISUAL STUDIO 2013\PROJECTS\LAB12\LAB12\LAB12\CUBE.CPP|C:\USERS\NSAMPAOL\DOCUMENTS\VISUAL STUDIO 2013\PROJECTS\LAB12\LAB12\LAB12\MAIN.CPP|C:\USERS\NSAMPAOL\DOCUMENTS\VISUAL STUDIO 2013\PROJECTS\LAB12\LAB12\LAB12\MULTITEXMODEL.CPP|C:\USERS\NSAMPAOL\DOCUMENTS\VISUAL STUDIO 2013\PROJECTS\LAB12\LAB12\LAB12\POINTSPRITE.CPP|C:\USERS\NSAMPAOL\DOCUMENTS\VISUAL STUDIO 2013\PROJECTS\LAB12\LAB12\LAB12\QUAD.CPP|C:\USERS\NSAMPAOL\DOCUMENTS\VISUAL STUDIO 2013\PROJECTS\LAB12\LAB12\LAB12\RECTANGLE.CPP|C:\USERS\NSAMPAOL\DOCUMENTS\VISUAL STUDIO 2013\PROJECTS\LAB12\LAB12\LAB12\TEXMODEL.CPP|C:\USERS\NSAMPAOL\DOCUMENTS\VISUAL STUDIO 2013\PROJECTS\LAB12\LAB12\LAB12\TRANSPARENTTEXMODEL.CPP|C:\USERS\NSAMPAOL\DOCUMENTS\VISUAL STUDIO 2013\PROJECTS\LAB12\LAB12\LAB12\VIEWCONTROLLER.CPP|C:\USERS\NSAMPAOL\DOCUMENTS\VISUAL STUDIO 2013\PROJECTS\LAB12\LAB12\LAB12\WORLDMODEL.CPP
C:\USERS\NSAMPAOL\DOCUMENTS\VISUAL STUDIO 2013\PROJECTS\LAB12\LAB12\LAB12\DEBUG\VC120.PDB
C:\USERS\NSAMPAOL\DOCUMENTS\VISUAL STUDIO 2013\PROJECTS\LAB12\LAB12\LAB12\DEBUG\VC120.IDB
C:\USERS\NSAMPAOL\DOCUMENTS\VISUAL STUDIO 2013\PROJECTS\LAB12\LAB12\LAB12\DEBUG\CUBE.OBJ
C:\USERS\NSAMPAOL\DOCUMENTS\VISUAL STUDIO 2013\PROJECTS\LAB12\LAB12\LAB12\DEBUG\TEXMODEL.OBJ
C:\USERS\NSAMPAOL\DOCUMENTS\VISUAL STUDIO 2013\PROJECTS\LAB12\LAB12\LAB12\DEBUG\MAIN.OBJ
C:\USERS\NSAMPAOL\DOCUMENTS\VISUAL STUDIO 2013\PROJECTS\LAB12\LAB12\LAB12\DEBUG\MULTITEXMODEL.OBJ
C:\USERS\NSAMPAOL\DOCUMENTS\VISUAL STUDIO 2013\PROJECTS\LAB12\LAB12\LAB12\DEBUG\POINTSPRITE.OBJ
C:\USERS\NSAMPAOL\DOCUMENTS\VISUAL STUDIO 2013\PROJECTS\LAB12\LAB12\LAB12\DEBUG\QUAD.OBJ
C:\USERS\NSAMPAOL\DOCUMENTS\VISUAL STUDIO 2013\PROJECTS\LAB12\LAB12\LAB12\DEBUG\RECTANGLE.OBJ
C:\USERS\NSAMPAOL\DOCUMENTS\VISUAL STUDIO 2013\PROJECTS\LAB12\LAB12\LAB12\DEBUG\TRANSPARENTTEXMODEL.OBJ
^C:\USERS\NSAMPAOL\DOCUMENTS\VISUAL STUDIO 2013\PROJECTS\LAB12\LAB12\LAB12\CUBE.CPP|C:\USERS\NSAMPAOL\DOCUMENTS\VISUAL STUDIO 2013\PROJECTS\LAB12\LAB12\LAB12\WORLDMODEL.CPP
C:\USERS\NSAMPAOL\DOCUMENTS\VISUAL STUDIO 2013\PROJECTS\LAB12\LAB12\LAB12\DEBUG\VC120.PDB
C:\USERS\NSAMPAOL\DOCUMENTS\VISUAL STUDIO 2013\PROJECTS\LAB12\LAB12\LAB12\DEBUG\VC120.IDB
C:\USERS\NSAMPAOL\DOCUMENTS\VISUAL STUDIO 2013\PROJECTS\LAB12\LAB12\LAB12\DEBUG\CUBE.OBJ
C:\USERS\NSAMPAOL\DOCUMENTS\VISUAL STUDIO 2013\PROJECTS\LAB12\LAB12\LAB12\DEBUG\WORLDMODEL.OBJ
^C:\USERS\NSAMPAOL\DOCUMENTS\VISUAL STUDIO 2013\PROJECTS\LAB12\LAB12\LAB12\CUBE.CPP|C:\USERS\NSAMPAOL\DOCUMENTS\VISUAL STUDIO 2013\PROJECTS\LAB12\LAB12\LAB12\MAIN.CPP|C:\USERS\NSAMPAOL\DOCUMENTS\VISUAL STUDIO 2013\PROJECTS\LAB12\LAB12\LAB12\VIEWCONTROLLER.CPP|C:\USERS\NSAMPAOL\DOCUMENTS\VISUAL STUDIO 2013\PROJECTS\LAB12\LAB12\LAB12\WORLDMODEL.CPP
C:\USERS\NSAMPAOL\DOCUMENTS\VISUAL STUDIO 2013\PROJECTS\LAB12\LAB12\LAB12\DEBUG\VC120.PDB
C:\USERS\NSAMPAOL\DOCUMENTS\VISUAL STUDIO 2013\PROJECTS\LAB12\LAB12\LAB12\DEBUG\VC120.IDB
C:\USERS\NSAMPAOL\DOCUMENTS\VISUAL STUDIO 2013\PROJECTS\LAB12\LAB12\LAB12\DEBUG\CUBE.OBJ
C:\USERS\NSAMPAOL\DOCUMENTS\VISUAL STUDIO 2013\PROJECTS\LAB12\LAB12\LAB12\DEBUG\VIEWCONTROLLER.OBJ
C:\USERS\NSAMPAOL\DOCUMENTS\VISUAL STUDIO 2013\PROJECTS\LAB12\LAB12\LAB12\DEBUG\WORLDMODEL.OBJ
